#EXTM3U x-tvg-url="https://mirror.ghproxy.com/https://raw.githubusercontent.com/Meroser/IPTV/main/tvxml.xml"
#央视高清/22个频道
#EXTINF:-1 tvg-id="A01" tvg-name="CCTV1" tvg-logo="https://mirror.ghproxy.com/https://raw.githubusercontent.com/wanglindl/TVlogo/main/img/CCTV1.png" group-title="央视",CCTV-1
http://[2409:8087:1e03:21::2]:6060/cms001/ch00000090990000001022/index.m3u8
#EXTINF:-1 tvg-id="A02" tvg-name="CCTV2" tvg-logo="https://mirror.ghproxy.com/https://raw.githubusercontent.com/wanglindl/TVlogo/main/img/CCTV2.png" group-title="央视",CCTV-2
http://[2409:8087:1e03:21::2]:6060/cms001/ch00000090990000001220/index.m3u8
#EXTINF:-1 tvg-id="A03" tvg-name="CCTV3" tvg-logo="https://mirror.ghproxy.com/https://raw.githubusercontent.com/wanglindl/TVlogo/main/img/CCTV3.png" group-title="央视",CCTV-3
http://[2409:8087:1e03:21::2]:6060/cms001/ch00000090990000001186/index.m3u8
#EXTINF:-1 tvg-id="A04" tvg-name="CCTV4" tvg-logo="https://mirror.ghproxy.com/https://raw.githubusercontent.com/wanglindl/TVlogo/main/img/CCTV4.png" group-title="央视",CCTV-4
http://[2409:8087:1e03:21::2]:6060/cms001/ch00000090990000001221/index.m3u8
#EXTINF:-1 tvg-id="A05" tvg-name="CCTV5" tvg-logo="https://mirror.ghproxy.com/https://raw.githubusercontent.com/wanglindl/TVlogo/main/img/CCTV5.png" group-title="央视",CCTV-5
http://[2409:8087:1e03:21::2]:6060/cms001/ch00000090990000001187/index.m3u8
#EXTINF:-1 tvg-id="A06" tvg-name="CCTV5+" tvg-logo="https://mirror.ghproxy.com/https://raw.githubusercontent.com/wanglindl/TVlogo/main/img/CCTV5plus.png" group-title="央视",CCTV-5+
http://[2409:8087:7000:20:1000::22]:6060/yinhe/2/ch00000090990000001008/index.m3u8?virtualDomain=yinhe.live_hls.zte.com
#EXTINF:-1 tvg-id="A07" tvg-name="CCTV6" tvg-logo="https://mirror.ghproxy.com/https://raw.githubusercontent.com/wanglindl/TVlogo/main/img/CCTV6.png" group-title="央视",CCTV-6
http://[2409:8087:1e03:21::2]:6060/cms001/ch00000090990000001188/index.m3u8
#EXTINF:-1 tvg-id="A08" tvg-name="CCTV7" tvg-logo="https://mirror.ghproxy.com/https://raw.githubusercontent.com/wanglindl/TVlogo/main/img/CCTV7.png" group-title="央视",CCTV-7
http://[2409:8087:1e03:21::2]:6060/cms001/ch00000090990000001236/index.m3u8
#EXTINF:-1 tvg-id="A09" tvg-name="CCTV8" tvg-logo="https://mirror.ghproxy.com/https://raw.githubusercontent.com/wanglindl/TVlogo/main/img/CCTV8.png" group-title="央视",CCTV-8
http://[2409:8087:1e03:21::2]:6060/cms001/ch00000090990000001189/index.m3u8
#EXTINF:-1 tvg-id="A10" tvg-name="CCTV9" tvg-logo="https://mirror.ghproxy.com/https://raw.githubusercontent.com/wanglindl/TVlogo/main/img/CCTV9.png" group-title="央视",CCTV-9
http://[2409:8087:1e03:21::2]:6060/cms001/ch00000090990000001237/index.m3u8
#EXTINF:-1 tvg-id="A11" tvg-name="CCTV10" tvg-logo="https://mirror.ghproxy.com/https://raw.githubusercontent.com/wanglindl/TVlogo/main/img/CCTV10.png" group-title="央视",CCTV-10
http://[2409:8087:1e03:21::2]:6060/cms001/ch00000090990000001238/index.m3u8
#EXTINF:-1 tvg-id="A12" tvg-name="CCTV11" tvg-logo="https://mirror.ghproxy.com/https://raw.githubusercontent.com/wanglindl/TVlogo/main/img/CCTV11.png" group-title="央视",CCTV-11
http://[2409:8087:1e03:21::2]:6060/cms001/ch00000090990000001309/index.m3u8
#EXTINF:-1 tvg-id="A13" tvg-name="CCTV12" tvg-logo="https://mirror.ghproxy.com/https://raw.githubusercontent.com/wanglindl/TVlogo/main/img/CCTV12.png" group-title="央视",CCTV-12
http://[2409:8087:1e03:21::2]:6060/cms001/ch00000090990000001239/index.m3u8
#EXTINF:-1 tvg-id="A14" tvg-name="CCTV13" tvg-logo="https://mirror.ghproxy.com/https://raw.githubusercontent.com/wanglindl/TVlogo/main/img/CCTV13.png" group-title="央视",CCTV-13
http://[2409:8087:1e03:21::2]:6060/cms001/ch00000090990000001328/index.m3u8
#EXTINF:-1 tvg-id="A15" tvg-name="CCTV14" tvg-logo="https://mirror.ghproxy.com/https://raw.githubusercontent.com/wanglindl/TVlogo/main/img/CCTV14.png" group-title="央视",CCTV-14
http://[2409:8087:1e03:21::2]:6060/cms001/ch00000090990000001240/index.m3u8
#EXTINF:-1 tvg-id="A16" tvg-name="CCTV15" tvg-logo="https://mirror.ghproxy.com/https://raw.githubusercontent.com/wanglindl/TVlogo/main/img/CCTV15.png" group-title="央视",CCTV-15
http://[2409:8087:1e03:21::2]:6060/cms001/ch00000090990000001338/index.m3u8
#EXTINF:-1 tvg-id="A17" tvg-name="CCTV16" tvg-logo="https://mirror.ghproxy.com/https://raw.githubusercontent.com/wanglindl/TVlogo/main/img/CCTV16.png" group-title="央视",CCTV-16
http://[2409:8087:1e03:21::2]:6060/cms001/ch00000090990000001248/index.m3u8
#EXTINF:-1 tvg-id="A18" tvg-name="CCTV17" tvg-logo="https://mirror.ghproxy.com/https://raw.githubusercontent.com/wanglindl/TVlogo/main/img/CCTV17.png" group-title="央视",CCTV-17
http://[2409:8087:1e03:21::2]:6060/cms001/ch00000090990000001241/index.m3u8
#EXTINF:-1 tvg-id="A19" tvg-name="CETV1" tvg-logo="https://mirror.ghproxy.com/https://raw.githubusercontent.com/wanglindl/TVlogo/main/img/CETV1.png" group-title="央视",CETV-1
http://[2409:8087:1e03:21::2]:6060/cms001/ch00000090990000001020/index.m3u8
#EXTINF:-1 tvg-id="A20" tvg-name="CETV2" tvg-logo="https://mirror.ghproxy.com/https://raw.githubusercontent.com/wanglindl/TVlogo/main/img/CETV2.png" group-title="央视",CETV-2
http://[2409:8087:7000:20:1000::22]:6060/yinhe/2/ch00000090990000001064/index.m3u8?virtualDomain=yinhe.live_hls.zte.com
#EXTINF:-1 tvg-id="A21" tvg-name="CETV3" tvg-logo="https://mirror.ghproxy.com/https://raw.githubusercontent.com/wanglindl/TVlogo/main/img/CETV3.png" group-title="央视",CETV-3
http://[2409:8087:7000:20:1000::22]:6060/yinhe/2/ch00000090990000001309/index.m3u8?virtualDomain=yinhe.live_hls.zte.com
#EXTINF:-1 tvg-id="A22" tvg-name="CETV4" tvg-logo="https://mirror.ghproxy.com/https://raw.githubusercontent.com/wanglindl/TVlogo/main/img/CETV4.png" group-title="央视",CETV-4
http://[2409:8087:1e03:21::2]:6060/cms001/ch00000090990000001348/index.m3u8


#卫视高清/28个频道
#EXTINF:-1 tvg-id="B01" tvg-name="北京卫视" tvg-logo="https://mirror.ghproxy.com/https://raw.githubusercontent.com/wanglindl/TVlogo/main/img/Beijing.png" group-title="卫视",北京卫视
http://[2409:8087:2001:20:2800:0:df6e:eb0b]/wh7f454c46tw2687876293_-1703018199/ott.mobaibox.com/PLTV/3/224/3221227508/index.m3u8?icpid=3&RTS=1668597482&from=40&popid=40&hms_devid=2038&prioritypopid=40&vqe=3
#EXTINF:-1 tvg-id="B02" tvg-name="东方卫视" tvg-logo="https://mirror.ghproxy.com/https://raw.githubusercontent.com/wanglindl/TVlogo/main/img/Dongfang.png" group-title="卫视",东方卫视
http://[2409:8087:2001:20:2800:0:df6e:eb16]/wh7f454c46tw2542426131_1585848046/ott.mobaibox.com/PLTV/3/224/3221227511/index.m3u8?icpid=3&RTS=1668597336&from=40&popid=40&hms_devid=2114&prioritypopid=40&vqe=3
#EXTINF:-1 tvg-id="B03" tvg-name="湖南卫视" tvg-logo="https://mirror.ghproxy.com/https://raw.githubusercontent.com/wanglindl/TVlogo/main/img/Hunan.png" group-title="卫视",湖南卫视
http://[2409:8087:1e03:21::2]:6060/cms001/ch00000090990000001026/index.m3u8
#EXTINF:-1 tvg-id="B04" tvg-name="浙江卫视" tvg-logo="https://mirror.ghproxy.com/https://raw.githubusercontent.com/wanglindl/TVlogo/main/img/Zhejiang.png" group-title="卫视",浙江卫视
http://[2409:8087:2001:20:2800:0:df6e:eb11]/wh7f454c46tw1197826796_-265147758/ott.mobaibox.com/PLTV/3/224/3221227491/index.m3u8?icpid=3&RTS=1669699798&from=40&popid=40&hms_devid=2110&prioritypopid=40&vqe=3
#EXTINF:-1 tvg-id="B05" tvg-name="江苏卫视" tvg-logo="https://mirror.ghproxy.com/https://raw.githubusercontent.com/wanglindl/TVlogo/main/img/Jiangsu.png" group-title="卫视",江苏卫视
http://[2409:8087:2001:20:2800:0:df6e:eb12]/wh7f454c46tw2983110475_-1591539074/ott.mobaibox.com/PLTV/3/224/3221228097/index.m3u8?icpid=3&RTS=1668597777&from=40&popid=40&hms_devid=2112&prioritypopid=40&vqe=3
#EXTINF:-1 tvg-id="B06" tvg-name="江西卫视" tvg-logo="https://mirror.ghproxy.com/https://raw.githubusercontent.com/wanglindl/TVlogo/main/img/Jiangxi.png" group-title="卫视",江西卫视
http://[2409:8087:2001:20:2800:0:df6e:eb17]/wh7f454c46tw1965546073_-1364170119/ott.mobaibox.com/PLTV/3/224/3221228109/index.m3u8?icpid=3&RTS=1669700566&from=40&popid=40&hms_devid=2114&prioritypopid=40&vqe=3
#EXTINF:-1 tvg-id="B07" tvg-name="河北卫视" tvg-logo="https://mirror.ghproxy.com/https://raw.githubusercontent.com/wanglindl/TVlogo/main/img/Hebei.png" group-title="卫视",河北卫视
http://[2409:8087:2001:20:2800:0:df6e:eb05]/wh7f454c46tw1698524218_988816054/ott.mobaibox.com/PLTV/3/224/3221228106/index.m3u8?icpid=3&RTS=1669700299&from=40&popid=40&hms_devid=2041&prioritypopid=40&vqe=3
#EXTINF:-1 tvg-id="B08" tvg-name="河南卫视" tvg-logo="https://mirror.ghproxy.com/https://raw.githubusercontent.com/wanglindl/TVlogo/main/img/Henan.png" group-title="卫视",河南卫视
http://[2409:8087:2001:20:2800:0:df6e:eb17]/wh7f454c46tw1784575403_-1712002709/ott.mobaibox.com/PLTV/3/224/3221228221/index.m3u8?icpid=3&RTS=1669700385&from=40&popid=40&hms_devid=2114&prioritypopid=40&vqe=3
#EXTINF:-1 tvg-id="B09" tvg-name="海南卫视" tvg-logo="https://mirror.ghproxy.com/https://raw.githubusercontent.com/wanglindl/TVlogo/main/img/Hainan.png" group-title="卫视",海南卫视
http://[2409:8087:1e03:21::2]:6060/cms001/ch00000090990000001183/index.m3u8
#EXTINF:-1 tvg-id="B10" tvg-name="深圳卫视" tvg-logo="https://mirror.ghproxy.com/https://raw.githubusercontent.com/wanglindl/TVlogo/main/img/Shenzhen.png" group-title="卫视",深圳卫视
http://[2409:8087:2001:20:2800:0:df6e:eb11]/wh7f454c46tw3025923625_628894334/ott.mobaibox.com/PLTV/3/224/3221227555/index.m3u8?icpid=3&RTS=1668597820&from=40&popid=40&hms_devid=2110&prioritypopid=40&vqe=3
#EXTINF:-1 tvg-id="B11" tvg-name="湖北卫视" tvg-logo="https://mirror.ghproxy.com/https://raw.githubusercontent.com/wanglindl/TVlogo/main/img/Hubei.png" group-title="卫视",湖北卫视
http://[2409:8087:2001:20:2800:0:df6e:eb11]/wh7f454c46tw3059146177_-1525708880/ott.mobaibox.com/PLTV/3/224/3221227479/index.m3u8?icpid=3&RTS=1668597853&from=40&popid=40&hms_devid=2110&prioritypopid=40&vqe=3
#EXTINF:-1 tvg-id="B12" tvg-name="四川卫视" tvg-logo="https://mirror.ghproxy.com/https://raw.githubusercontent.com/wanglindl/TVlogo/main/img/Sichuan.png" group-title="卫视",四川卫视
http://[2409:8087:2001:20:2800:0:df6e:eb09]/wh7f454c46tw2502717081_11504314/ott.mobaibox.com/PLTV/3/224/3221227556/index.m3u8?icpid=3&RTS=1669701103&from=40&popid=40&hms_devid=2037&prioritypopid=40&vqe=3
#EXTINF:-1 tvg-id="B13" tvg-name="天津卫视" tvg-logo="https://mirror.ghproxy.com/https://raw.githubusercontent.com/wanglindl/TVlogo/main/img/Tianjin.png" group-title="卫视",天津卫视
http://[2409:8087:2001:20:2800:0:df6e:eb11]/wh7f454c46tw2730715388_788631706/ott.mobaibox.com/PLTV/3/224/3221227488/index.m3u8?icpid=3&RTS=1668597525&from=40&popid=40&hms_devid=2110&prioritypopid=40&vqe=3
#EXTINF:-1 tvg-id="B14" tvg-name="安徽卫视" tvg-logo="https://mirror.ghproxy.com/https://raw.githubusercontent.com/wanglindl/TVlogo/main/img/Anhui.png" group-title="卫视",安徽卫视
http://[2409:8087:2001:20:2800:0:df6e:eb12]/wh7f454c46tw2802330256_375747539/ott.mobaibox.com/PLTV/3/224/3221227558/index.m3u8?icpid=3&RTS=1668597596&from=40&popid=40&hms_devid=2112&prioritypopid=40&vqe=3
#EXTINF:-1 tvg-id="B15" tvg-name="山东卫视" tvg-logo="https://mirror.ghproxy.com/https://raw.githubusercontent.com/wanglindl/TVlogo/main/img/Shandong.png" group-title="卫视",山东卫视
http://[2409:8087:2001:20:2800:0:df6e:eb10]/wh7f454c46tw2848465480_1677095697/ott.mobaibox.com/PLTV/3/224/3221227517/index.m3u8?icpid=3&RTS=1668597642&from=40&popid=40&hms_devid=2110&prioritypopid=40&vqe=3
#EXTINF:-1 tvg-id="B16" tvg-name="广东卫视" tvg-logo="https://mirror.ghproxy.com/https://raw.githubusercontent.com/wanglindl/TVlogo/main/img/Guangdong.png" group-title="卫视",广东卫视
http://[2409:8087:2001:20:2800:0:df6e:eb03]/wh7f454c46tw2917484419_-1632335828/ott.mobaibox.com/PLTV/3/224/3221227476/index.m3u8?icpid=3&RTS=1668597711&from=40&popid=40&hms_devid=2039&prioritypopid=40&vqe=3
#EXTINF:-1 tvg-id="B17" tvg-name="广西卫视" tvg-logo="https://mirror.ghproxy.com/https://raw.githubusercontent.com/wanglindl/TVlogo/main/img/Guangxi.png" group-title="卫视",广西卫视
http://[2409:8087:2001:20:2800:0:df6e:eb05]/wh7f454c46tw2325655923_1638953995/ott.mobaibox.com/PLTV/3/224/3221228183/index.m3u8?icpid=3&RTS=1669700926&from=40&popid=40&hms_devid=2041&prioritypopid=40&vqe=3
#EXTINF:-1 tvg-id="B18" tvg-name="贵州卫视" tvg-logo="https://mirror.ghproxy.com/https://raw.githubusercontent.com/wanglindl/TVlogo/main/img/Guizhou.png" group-title="卫视",贵州卫视
http://[2409:8087:2001:20:2800:0:df6e:eb08]/wh7f454c46tw2087544744_109645303/ott.mobaibox.com/PLTV/3/224/3221228136/index.m3u8?icpid=3&RTS=1669700688&from=40&popid=40&hms_devid=2037&prioritypopid=40&vqe=3
#EXTINF:-1 tvg-id="B19" tvg-name="辽宁卫视" tvg-logo="https://mirror.ghproxy.com/https://raw.githubusercontent.com/wanglindl/TVlogo/main/img/Liaoning.png" group-title="卫视",辽宁卫视
http://[2409:8087:2001:20:2800:0:df6e:eb16]/wh7f454c46tw3102310989_-1844874138/ott.mobaibox.com/PLTV/3/224/3221227485/index.m3u8?icpid=3&RTS=1668597896&from=40&popid=40&hms_devid=2114&prioritypopid=40&vqe=3
#EXTINF:-1 tvg-id="B20" tvg-name="重庆卫视" tvg-logo="https://mirror.ghproxy.com/https://raw.githubusercontent.com/wanglindl/TVlogo/main/img/Chongqing.png" group-title="卫视",重庆卫视
http://[2409:8087:2001:20:2800:0:df6e:eb09]/wh7f454c46tw2787424866_142914197/ott.mobaibox.com/PLTV/3/224/3221228133/index.m3u8?icpid=3&RTS=1669701388&from=40&popid=40&hms_devid=2037&prioritypopid=40&vqe=3
#EXTINF:-1 tvg-id="B21" tvg-name="黑龙江卫视" tvg-logo="https://mirror.ghproxy.com/https://raw.githubusercontent.com/wanglindl/TVlogo/main/img/Heilongjiang.png" group-title="卫视",黑龙江卫视
http://[2409:8087:1e03:21::2]:6060/cms001/ch00000090990000001031/index.m3u8
#EXTINF:-1 tvg-id="B22" tvg-name="甘肃卫视" tvg-logo="https://mirror.ghproxy.com/https://raw.githubusercontent.com/wanglindl/TVlogo/main/img/Gansu.png" group-title="卫视",甘肃卫视
http://[2409:8087:2001:20:2800:0:df6e:eb1a]/wh7f454c46tw1400573680_-1979013462/ott.mobaibox.com/PLTV/3/224/3221227568/index.m3u8?icpid=3&RTS=1668600490&from=40&popid=40&hms_devid=2116&prioritypopid=40&vqe=3
#EXTINF:-1 tvg-id="B23" tvg-name="吉林卫视" tvg-logo="https://mirror.ghproxy.com/https://raw.githubusercontent.com/wanglindl/TVlogo/main/img/Jilin.png" group-title="卫视",吉林卫视
http://[2409:8087:2001:20:2800:0:df6e:eb03]/wh7f454c46tw1874077489_789689702/ott.mobaibox.com/PLTV/3/224/3221228130/index.m3u8?icpid=3&RTS=1669700475&from=40&popid=40&hms_devid=2039&prioritypopid=40&vqe=3
#EXTINF:-1 tvg-id="B24" tvg-name="三沙卫视" tvg-logo="https://mirror.ghproxy.com/https://raw.githubusercontent.com/wanglindl/TVlogo/main/img/Sansha.png" group-title="卫视",三沙卫视
http://[2409:8087:5e01:34::21]:6610/ZTE_CMS/08984400000000060000000000000319/index.m3u8?IAS
#EXTINF:-1 tvg-id="B25" tvg-name="东南卫视" tvg-logo="https://mirror.ghproxy.com/https://raw.githubusercontent.com/wanglindl/TVlogo/main/img/Dongnan.png" group-title="卫视",东南卫视
http://[2409:8087:2001:20:2800:0:df6e:eb0a]/wh7f454c46tw2900649569_-743777193/ott.mobaibox.com/PLTV/3/224/3221227670/index.m3u8?icpid=3&RTS=1669701501&from=40&popid=40&hms_devid=2038&prioritypopid=40&vqe=3
#EXTINF:-1 tvg-id="B26" tvg-name="青海卫视" tvg-logo="https://mirror.ghproxy.com/https://raw.githubusercontent.com/wanglindl/TVlogo/main/img/Qinghai.png" group-title="卫视",青海卫视
http://[2409:8087:2001:20:2800:0:df6e:eb1b]/wh7f454c46tw1221605145_-1738716276/ott.mobaibox.com/PLTV/3/224/3221227554/index.m3u8?icpid=3&RTS=1668600311&from=40&popid=40&hms_devid=2116&prioritypopid=40&vqe=3
#EXTINF:-1 tvg-id="B27" tvg-name="新疆卫视" tvg-logo="https://mirror.ghproxy.com/https://raw.githubusercontent.com/wanglindl/TVlogo/main/img/Xinjiang.png" group-title="卫视",新疆卫视
http://[2409:8087:2001:20:2800:0:df6e:eb0b]/wh7f454c46tw993550557_162751766/ott.mobaibox.com/PLTV/3/224/3221228290/index.m3u8?icpid=3&RTS=1668604377&from=40&popid=40&hms_devid=2038&prioritypopid=40&vqe=3
#EXTINF:-1 tvg-id="B28" tvg-name="云南卫视" tvg-logo="https://mirror.ghproxy.com/https://raw.githubusercontent.com/wanglindl/TVlogo/main/img/Yunnan.png" group-title="卫视",云南卫视
http://[2409:8087:1e03:21::2]:6060/cms001/ch00000090990000001223/index.m3u8


#数字高清/28个频道
#EXTINF:-1 tvg-id="C01" tvg-name="CHC高清电影" tvg-logo="https://mirror.ghproxy.com/https://raw.githubusercontent.com/wanglindl/TVlogo/main/img/CHC1.png" group-title="数字",CHC高清电影
http://[2409:8087:7000:20:1000::22]:6060/yinhe/2/ch00000090990000002065/index.m3u8?virtualDomain=yinhe.live_hls.zte.com
#EXTINF:-1 tvg-id="C02" tvg-name="CHC家庭影院" tvg-logo="https://mirror.ghproxy.com/https://raw.githubusercontent.com/wanglindl/TVlogo/main/img/CHC2.png" group-title="数字",CHC家庭影院
http://[2409:8087:7000:20:1000::22]:6060/yinhe/2/ch00000090990000002085/index.m3u8?virtualDomain=yinhe.live_hls.zte.com
#EXTINF:-1 tvg-id="C03" tvg-name="CHC动作电影" tvg-logo="https://mirror.ghproxy.com/https://raw.githubusercontent.com/wanglindl/TVlogo/main/img/CHC3.png" group-title="数字",CHC动作电影
http://[2409:8087:7000:20:1000::22]:6060/yinhe/2/ch00000090990000002055/index.m3u8?virtualDomain=yinhe.live_hls.zte.com
#EXTINF:-1 tvg-id="C04" tvg-name="求索纪录" tvg-logo="https://mirror.ghproxy.com/https://raw.githubusercontent.com/wanglindl/TVlogo/main/img/Qiusuo1.png" group-title="数字",求索纪录
http://[2409:8087:7001:20:1000::95]:6610/000000001000/6000000002000032052/index.m3u8?channel-id=wasusyt&Contentid=6000000002000032052&livemode=1&stbId=3
#EXTINF:-1 tvg-id="C05" tvg-name="求索科学" tvg-logo="https://mirror.ghproxy.com/https://raw.githubusercontent.com/wanglindl/TVlogo/main/img/Qiusuo2.png" group-title="数字",求索科学
http://[2409:8087:7001:20:1000::95]:6610/000000001000/6000000002000032344/index.m3u8?channel-id=wasusyt&Contentid=6000000002000032344&livemode=1&stbId=3
#EXTINF:-1 tvg-id="C06" tvg-name="求索动物" tvg-logo="https://mirror.ghproxy.com/https://raw.githubusercontent.com/wanglindl/TVlogo/main/img/Qiusuo3.png" group-title="数字",求索动物
http://[2409:8087:7001:20:1000::95]:6610/000000001000/6000000002000010046/index.m3u8?channel-id=wasusyt&Contentid=6000000002000010046&livemode=1&stbId=3
#EXTINF:-1 tvg-id="C07" tvg-name="求索生活" tvg-logo="https://mirror.ghproxy.com/https://raw.githubusercontent.com/wanglindl/TVlogo/main/img/Qiusuo4.png" group-title="数字",求索生活
http://[2409:8087:7001:20:1000::95]:6610/000000001000/6000000002000003382/index.m3u8?channel-id=wasusyt&Contentid=6000000002000003382&livemode=1&stbId=3
#EXTINF:-1 tvg-id="C08" tvg-name="黑莓电影" tvg-logo="https://mirror.ghproxy.com/https://raw.githubusercontent.com/wanglindl/TVlogo/main/img/hmdy.png" group-title="数字",黑莓电影
http://[2409:8087:2001:20:2800:0:df6e:eb04]/ott.mobaibox.com/PLTV/3/224/3221225567/index.m3u8
#EXTINF:-1 tvg-id="C09" tvg-name="黑莓动画" tvg-logo="https://mirror.ghproxy.com/https://raw.githubusercontent.com/wanglindl/TVlogo/main/img/hmdh.png" group-title="数字",黑莓动画
http://[2409:8087:1a01:df::7005]/ottrrs.hl.chinamobile.com/PLTV/88888888/224/3221225662/index.m3u8
#EXTINF:-1 tvg-id="C10" tvg-name="哒啵电竞" tvg-logo="https://mirror.ghproxy.com/https://raw.githubusercontent.com/Meroser/IPTV/main/TVlogo/dbdj.png" group-title="数字",哒啵电竞
http://[2409:8087:7000:20::4]/dbiptv.sn.chinamobile.com/PLTV/88888888/224/3221226951/index.m3u8
#EXTINF:-1 tvg-id="C11" tvg-name="哒啵赛事" tvg-logo="https://mirror.ghproxy.com/https://raw.githubusercontent.com/Meroser/IPTV/main/TVlogo/dbss.png" group-title="数字",哒啵赛事
http://[2409:8087:1a01:df::7005]/ottrrs.hl.chinamobile.com/PLTV/88888888/224/3221225675/index.m3u8
#EXTINF:-1 tvg-id="C12" tvg-name="乐游" tvg-logo="https://mirror.ghproxy.com/https://raw.githubusercontent.com/wanglindl/TVlogo/main/img/leyou.png" group-title="数字",乐游
http://[2409:8087:1e03:21::2]:6060/cms001/ch00000090990000001200/index.m3u8
#EXTINF:-1 tvg-id="C13" tvg-name="纪实人文" tvg-logo="https://mirror.ghproxy.com/https://raw.githubusercontent.com/wanglindl/TVlogo/main/img/jsrw.png" group-title="数字",纪实人文
http://[2409:8087:2001:20:2800:0:df6e:eb12]/wh7f454c46tw1293235676_155310184/ott.mobaibox.com/PLTV/3/224/3221227635/index.m3u8?icpid=3&RTS=1669704189&from=40&popid=40&hms_devid=2112&prioritypopid=40&vqe=3
#EXTINF:-1 tvg-id="C14" tvg-name="纯享4K" tvg-logo="https://mirror.ghproxy.com/https://raw.githubusercontent.com/wanglindl/TVlogo/main/img/cx4k.png" group-title="数字",纯享4K
http://[2409:8087:2001:20:2800:0:df6e:eb11]/ott.mobaibox.com/PLTV/3/224/3221228242/index.m3u8
#EXTINF:-1 tvg-id="C15" tvg-name="CCTV4K" tvg-logo="https://mirror.ghproxy.com/https://raw.githubusercontent.com/wanglindl/TVlogo/main/img/CCTV4K.png" group-title="数字",CCTV-4K
http://[2409:8087:2001:20:2800:0:df6e:eb13]/ott.mobaibox.com/PLTV/3/224/3221228228/index.m3u8
#EXTINF:-1 tvg-id="C16" tvg-name="CCTV8K" tvg-logo="https://mirror.ghproxy.com/https://raw.githubusercontent.com/wanglindl/TVlogo/main/img/CCTV8K.png" group-title="数字",CCTV-8K
http://[2409:8087:2001:20:2800:0:df6e:eb03]/ott.mobaibox.com/PLTV/4/224/3221228165/index.m3u8
#EXTINF:-1 tvg-id="C17" tvg-name="风云剧场" tvg-logo="https://mirror.ghproxy.com/https://raw.githubusercontent.com/wanglindl/TVlogo/main/img/CCTVfyjc.png" group-title="数字",风云剧场
http://[2409:8087:7001:20:2::3]:80/dbiptv.sn.chinamobile.com/PLTV/88888893/224/3221226950/index.m3u8
#EXTINF:-1 tvg-id="C18" tvg-name="风云音乐" tvg-logo="https://mirror.ghproxy.com/https://raw.githubusercontent.com/wanglindl/TVlogo/main/img/CCTVfyyy.png" group-title="数字",风云音乐
http://[2409:8087:7001:20:2::3]:80/dbiptv.sn.chinamobile.com/PLTV/88888893/224/3221226953/index.m3u8
#EXTINF:-1 tvg-id="C19" tvg-name="第一剧场" tvg-logo="https://mirror.ghproxy.com/https://raw.githubusercontent.com/wanglindl/TVlogo/main/img/CCTVdyjc.png" group-title="数字",第一剧场
http://[2409:8087:7001:20:2::3]:80/dbiptv.sn.chinamobile.com/PLTV/88888893/224/3221226959/index.m3u8
#EXTINF:-1 tvg-id="C20" tvg-name="女性时尚" tvg-logo="https://mirror.ghproxy.com/https://raw.githubusercontent.com/wanglindl/TVlogo/main/img/CCTVnxss.png" group-title="数字",女性时尚
http://[2409:8087:7001:20:2::3]:80/dbiptv.sn.chinamobile.com/PLTV/88888893/224/3221226969/index.m3u8
#EXTINF:-1 tvg-id="C21" tvg-name="风云足球" tvg-logo="https://mirror.ghproxy.com/https://raw.githubusercontent.com/wanglindl/TVlogo/main/img/CCTVfyzq.png" group-title="数字",风云足球
http://[2409:8087:7001:20:2::3]:80/dbiptv.sn.chinamobile.com/PLTV/88888893/224/3221226984/index.m3u8
#EXTINF:-1 tvg-id="C22" tvg-name="兵器科技" tvg-logo="https://mirror.ghproxy.com/https://raw.githubusercontent.com/wanglindl/TVlogo/main/img/CCTVbqkj.png" group-title="数字",兵器科技
http://[2409:8087:7001:20:2::3]:80/dbiptv.sn.chinamobile.com/PLTV/88888893/224/3221226975/index.m3u8
#EXTINF:-1 tvg-id="C23" tvg-name="怀旧剧场" tvg-logo="https://mirror.ghproxy.com/https://raw.githubusercontent.com/wanglindl/TVlogo/main/img/CCTVhjjc.png" group-title="数字",怀旧剧场
http://[2409:8087:7001:20:2::3]:80/dbiptv.sn.chinamobile.com/PLTV/88888893/224/3221226972/index.m3u8
#EXTINF:-1 tvg-id="C24" tvg-name="世界地理" tvg-logo="https://mirror.ghproxy.com/https://raw.githubusercontent.com/wanglindl/TVlogo/main/img/CCTVsjdl.png" group-title="数字",世界地理
http://[2409:8087:7001:20:2::3]:80/dbiptv.sn.chinamobile.com/PLTV/88888893/224/3221226947/index.m3u8
#EXTINF:-1 tvg-id="C25" tvg-name="文化精品" tvg-logo="https://mirror.ghproxy.com/https://raw.githubusercontent.com/wanglindl/TVlogo/main/img/CCTVyswhjp.png" group-title="数字",文化精品
http://[2409:8087:7001:20:2::3]:80/dbiptv.sn.chinamobile.com/PLTV/88888893/224/3221226981/index.m3u8
#EXTINF:-1 tvg-id="C26" tvg-name="央视台球" tvg-logo="https://mirror.ghproxy.com/https://raw.githubusercontent.com/wanglindl/TVlogo/main/img/CCTVystq.png" group-title="数字",央视台球
http://[2409:8087:7001:20:2::3]:80/dbiptv.sn.chinamobile.com/PLTV/88888893/224/3221226956/index.m3u8
#EXTINF:-1 tvg-id="C27" tvg-name="高尔夫网球" tvg-logo="https://mirror.ghproxy.com/https://raw.githubusercontent.com/wanglindl/TVlogo/main/img/CCTVgefwq.png" group-title="数字",高尔夫网球
http://[2409:8087:7001:20:2::3]:80/dbiptv.sn.chinamobile.com/PLTV/88888893/224/3221226978/index.m3u8
#EXTINF:-1 tvg-id="C28" tvg-name="电视指南" tvg-logo="https://mirror.ghproxy.com/https://raw.githubusercontent.com/wanglindl/TVlogo/main/img/CCTVdszn.png" group-title="数字",电视指南
http://[2409:8087:7001:20:2::3]:80/dbiptv.sn.chinamobile.com/PLTV/88888893/224/3221226987/index.m3u8


#国际频道/18个频道
#EXTINF:-1 tvg-id="D01" tvg-name="凤凰中文" tvg-logo="https://mirror.ghproxy.com/https://raw.githubusercontent.com/wanglindl/TVlogo/main/img/Phoenix1.png" group-title="国际",凤凰中文
https://0472.org/hls/youzaiSB/fhzw.m3u8
#EXTINF:-1 tvg-id="D02" tvg-name="凤凰资讯" tvg-logo="https://mirror.ghproxy.com/https://raw.githubusercontent.com/wanglindl/TVlogo/main/img/Phoenix2.png" group-title="国际",凤凰资讯
https://0472.org/hls/youzaiSB/fhzx.m3u8
#EXTINF:-1 tvg-id="D03" tvg-name="凤凰香港" tvg-logo="https://mirror.ghproxy.com/https://raw.githubusercontent.com/wanglindl/TVlogo/main/img/Phoenix3.png" group-title="国际",凤凰香港
https://0472.org/hls/youzaiSB/fhhk.m3u8
#EXTINF:-1 tvg-id="D04" tvg-name="翡翠台" tvg-logo="https://mirror.ghproxy.com/https://raw.githubusercontent.com/wanglindl/TVlogo/main/img/TVB1.png" group-title="国际",翡翠台
http://r.jdshipin.com/GeWKr?id=fct720
#EXTINF:-1 tvg-id="D05" tvg-name="明珠台" tvg-logo="https://mirror.ghproxy.com/https://raw.githubusercontent.com/wanglindl/TVlogo/main/img/TVB2.png" group-title="国际",明珠台
http://r.jdshipin.com/GeWKr?id=mzt720
#EXTINF:-1 tvg-id="D06" tvg-name="J2" tvg-logo="https://mirror.ghproxy.com/https://raw.githubusercontent.com/wanglindl/TVlogo/main/img/TVB3.png" group-title="国际",J2
http://198.16.100.90:8278/j2_twn/playlist.m3u8?tid=MFCF3274854132748541&ct=19254&tsum=699466c18aac56202ad1d2843fd21032
#EXTINF:-1 tvg-id="D07" tvg-name="NHK World" tvg-logo="https://mirror.ghproxy.com/https://raw.githubusercontent.com/wanglindl/TVlogo/main/img/NHKWorld.png" group-title="国际",NHK World
https://nhkwlive-ojp.akamaized.net/hls/live/2003459/nhkwlive-ojp-en/index_4M.m3u8
#EXTINF:-1 tvg-id="D08" tvg-name="CNA" tvg-logo="https://mirror.ghproxy.com/https://raw.githubusercontent.com/wanglindl/TVlogo/main/img/ChannelAsia.png" group-title="国际",CNA
https://d2e1asnsl7br7b.cloudfront.net/7782e205e72f43aeb4a48ec97f66ebbe/index_5.m3u8
#EXTINF:-1 tvg-id="D09" tvg-name="AlJazeera" tvg-logo="https://mirror.ghproxy.com/https://raw.githubusercontent.com/wanglindl/TVlogo/main/img/AlJazeera.png" group-title="国际",AlJazeera
http://live-hls-web-aje.getaj.net/AJE/01.m3u8
#EXTINF:-1 tvg-id="D10" tvg-name="Arirang TV" tvg-logo="https://mirror.ghproxy.com/https://raw.githubusercontent.com/Meroser/IPTV/main/TVlogo/Arirang_TV.png" group-title="国际",Arirang TV
https://amdlive-ch01-ctnd-com.akamaized.net/arirang_1ch/smil:arirang_1ch.smil/chunklist_b3256000_sleng.m3u8
#EXTINF:-1 tvg-id="D11" tvg-name="RT News" tvg-logo="https://mirror.ghproxy.com/https://raw.githubusercontent.com/Meroser/IPTV/main/TVlogo/RT_News.png" group-title="国际",RT News
https://rt-glb.rttv.com/dvr/rtnews/playlist_4500Kb.m3u8
#EXTINF:-1 tvg-id="D12" tvg-name="RT Documentary" tvg-logo="https://mirror.ghproxy.com/https://raw.githubusercontent.com/Meroser/IPTV/main/TVlogo/RT_Doc.png" group-title="国际",RT Documentary
https://rt-rtd.rttv.com/live/rtdoc/playlist_4500Kb.m3u8
#EXTINF:-1 tvg-id="D13" tvg-name="CGTN" tvg-logo="https://mirror.ghproxy.com/https://raw.githubusercontent.com/wanglindl/TVLogo/main/img/CGTN.png" group-title="国际",CGTN
http://[2409:8087:7000:20:1000::22]:6060/yinhe/2/ch00000090990000001024/index.m3u8?virtualDomain=yinhe.live_hls.zte.com
#EXTINF:-1 tvg-id="D14" tvg-name="CGTN Documentary" tvg-logo="https://mirror.ghproxy.com/https://raw.githubusercontent.com/wanglindl/TVLogo/main/img/CGTNjilu.png" group-title="国际",CGTN Documentary
http://[2409:8087:5e01:34::20]:6610/ZTE_CMS/00000001000000060000000000000528/index.m3u8?IAS
#EXTINF:-1 tvg-id="D15" tvg-name="CGTN Français" tvg-logo="https://mirror.ghproxy.com/https://raw.githubusercontent.com/wanglindl/TVLogo/main/img/CGTNfy.png" group-title="国际",CGTN Français
http://[2409:8087:7000:20:1000::22]:6060/yinhe/2/ch00000090990000002827/index.m3u8?virtualDomain=yinhe.live_hls.zte.com
#EXTINF:-1 tvg-id="D16" tvg-name="CGTN Русский" tvg-logo="https://mirror.ghproxy.com/https://raw.githubusercontent.com/wanglindl/TVLogo/main/img/CGTNey.png" group-title="国际",CGTN Русский
http://[2409:8087:7000:20:1000::22]:6060/yinhe/2/ch00000090990000002883/index.m3u8?virtualDomain=yinhe.live_hls.zte.com
#EXTINF:-1 tvg-id="D17" tvg-name="CGTN Español" tvg-logo="https://mirror.ghproxy.com/https://raw.githubusercontent.com/wanglindl/TVLogo/main/img/CGTNxbyy.png" group-title="国际",CGTN Español
http://[2409:8087:7000:20:1000::22]:6060/yinhe/2/ch00000090990000002716/index.m3u8?virtualDomain=yinhe.live_hls.zte.com
#EXTINF:-1 tvg-id="D18" tvg-name="CGTN العربية" tvg-logo="https://mirror.ghproxy.com/https://raw.githubusercontent.com/wanglindl/TVLogo/main/img/CGTNalby.png" group-title="国际",CGTN العربية
http://[2409:8087:7000:20:1000::22]:6060/yinhe/2/ch00000090990000002826/index.m3u8?virtualDomain=yinhe.live_hls.zte.com

#地方特色/23个频道
#EXTINF:-1 tvg-id="E01" tvg-name="茶频道" tvg-logo="https://mirror.ghproxy.com/https://raw.githubusercontent.com/wanglindl/TVlogo/main/img/chapd.png" group-title="地方",茶频道
http://[2409:8087:1e03:21::2]:6060/cms001/ch00000090990000001234/index.m3u8
#EXTINF:-1 tvg-id="E02" tvg-name="快乐垂钓" tvg-logo="https://mirror.ghproxy.com/https://raw.githubusercontent.com/wanglindl/TVlogo/main/img/klcd.png" group-title="地方",快乐垂钓
http://[2409:8087:1e03:21::2]:6060/cms001/ch00000090990000001235/index.m3u8
#EXTINF:-1 tvg-id="E03" tvg-name="金鹰纪实" tvg-logo="https://mirror.ghproxy.com/https://raw.githubusercontent.com/wanglindl/TVlogo/main/img/jyjs.png" group-title="地方",金鹰纪实
http://[2409:8087:1e03:21::2]:6060/cms001/ch00000090990000001230/index.m3u8
#EXTINF:-1 tvg-id="E04" tvg-name="金鹰卡通" tvg-logo="https://mirror.ghproxy.com/https://raw.githubusercontent.com/wanglindl/TVlogo/main/img/jykt.png" group-title="地方",金鹰卡通
http://[2409:8087:1e03:21::2]:6060/cms001/ch00000090990000001460/index.m3u8
#EXTINF:-1 tvg-id="E05" tvg-name="纪实科教" tvg-logo="https://mirror.ghproxy.com/https://raw.githubusercontent.com/wanglindl/TVlogo/main/img/jskj.png" group-title="地方",纪实科教
http://[2409:8087:2001:20:2800:0:df6e:eb0e]/wh7f454c46tw1542052607_1430934483/ott.mobaibox.com/PLTV/3/224/3221227699/index.m3u8?icpid=3&RTS=1669704438&from=40&popid=40&hms_devid=2111&prioritypopid=40&vqe=3
#EXTINF:-1 tvg-id="E06" tvg-name="卡酷少儿" tvg-logo="https://mirror.ghproxy.com/https://raw.githubusercontent.com/wanglindl/TVlogo/main/img/kakushaoer.png" group-title="地方",卡酷少儿
http://[2409:8087:1e03:21::2]:6060/cms001/ch00000090990000001245/index.m3u8
#EXTINF:-1 tvg-id="E07" tvg-name="上海新闻" tvg-logo="https://mirror.ghproxy.com/https://raw.githubusercontent.com/wanglindl/TVLogo/main/img/Shanghai1.png" group-title="地方",上海新闻综合
http://[2409:8087:1e03:21::2]:6060/cms001/ch00000090990000001014/index.m3u8
#EXTINF:-1 tvg-id="E08" tvg-name="上海都市" tvg-logo="https://mirror.ghproxy.com/https://raw.githubusercontent.com/wanglindl/TVLogo/main/img/Shanghai2.png" group-title="地方",上海都市
http://[2409:8087:1e03:21::2]:6060/cms001/ch00000090990000001015/index.m3u8
#EXTINF:-1 tvg-id="E08" tvg-name="东方影视" tvg-logo="https://mirror.ghproxy.com/https://raw.githubusercontent.com/wanglindl/TVLogo/main/img/Shanghai3.png" group-title="地方",东方影视
http://[2409:8087:1e03:21::2]:6060/cms001/ch00000090990000001016/index.m3u8
#EXTINF:-1 tvg-id="E10" tvg-name="上海外语" tvg-logo="https://mirror.ghproxy.com/https://raw.githubusercontent.com/wanglindl/TVLogo/main/img/Shanghai4.png" group-title="地方",上海外语
http://[2409:8087:1e03:21::2]:6060/cms001/ch00000090990000001128/index.m3u8
#EXTINF:-1 tvg-id="E11" tvg-name="五星体育" tvg-logo="https://mirror.ghproxy.com/https://raw.githubusercontent.com/wanglindl/TVLogo/main/img/Shanghai5.png" group-title="地方",五星体育
http://[2409:8087:1e03:21::2]:6060/cms001/ch00000090990000001018/index.m3u8
#EXTINF:-1 tvg-id="E12" tvg-name="上海教育" tvg-logo="https://mirror.ghproxy.com/https://raw.githubusercontent.com/wanglindl/TVLogo/main/img/Shanghai6.png" group-title="地方",上海教育
http://[2409:8087:1e03:21::2]:6060/cms001/ch00000090990000001268/index.m3u8
#EXTINF:-1 tvg-id="E13" tvg-name="都市剧场" tvg-logo="https://mirror.ghproxy.com/https://raw.githubusercontent.com/wanglindl/TVlogo/main/img/dsjc.png" group-title="地方",都市剧场
http://[2409:8087:1e03:21::2]:6060/cms001/ch00000090990000001203/index.m3u8
#EXTINF:-1 tvg-id="E14" tvg-name="生活时尚" tvg-logo="https://mirror.ghproxy.com/https://raw.githubusercontent.com/wanglindl/TVlogo/main/img/shss.png" group-title="地方",生活时尚
http://[2409:8087:1e03:21::2]:6060/cms001/ch00000090990000001199/index.m3u8
#EXTINF:-1 tvg-id="E15" tvg-name="金色学堂" tvg-logo="https://mirror.ghproxy.com/https://raw.githubusercontent.com/wanglindl/TVlogo/main/img/jsxt.png" group-title="地方",金色学堂
http://[2409:8087:1e03:21::2]:6060/cms001/ch00000090990000001194/index.m3u8
#EXTINF:-1 tvg-id="E16" tvg-name="法治天地" tvg-logo="https://mirror.ghproxy.com/https://raw.githubusercontent.com/wanglindl/TVlogo/main/img/fztd.png" group-title="地方",法治天地
http://[2409:8087:1e03:21::2]:6060/cms001/ch00000090990000001195/index.m3u8
#EXTINF:-1 tvg-id="E17" tvg-name="哈哈炫动" tvg-logo="https://mirror.ghproxy.com/https://raw.githubusercontent.com/wanglindl/TVlogo/main/img/hhxd.png" group-title="地方",哈哈炫动
http://[2409:8087:1e03:21::2]:6060/cms001/ch00000090990000001232/index.m3u8
#EXTINF:-1 tvg-id="E18" tvg-name="动漫秀场" tvg-logo="https://mirror.ghproxy.com/https://raw.githubusercontent.com/wanglindl/TVlogo/main/img/dmxc.png" group-title="地方",动漫秀场
http://[2409:8087:1e03:21::2]:6060/cms001/ch00000090990000001196/index.m3u8
#EXTINF:-1 tvg-id="E19" tvg-name="游戏风云" tvg-logo="https://mirror.ghproxy.com/https://raw.githubusercontent.com/wanglindl/TVlogo/main/img/yxfy.png" group-title="地方",游戏风云
http://[2409:8087:1e03:21::2]:6060/cms001/ch00000090990000001192/index.m3u8
#EXTINF:-1 tvg-id="E20" tvg-name="七彩戏剧" tvg-logo="https://mirror.ghproxy.com/https://raw.githubusercontent.com/wanglindl/TVlogo/main/img/qcxj.png" group-title="地方",七彩戏剧
http://[2409:8087:1e03:21::2]:6060/cms001/ch00000090990000001308/index.m3u8
#EXTINF:-1 tvg-id="E21" tvg-name="欢笑剧场" tvg-logo="https://mirror.ghproxy.com/https://raw.githubusercontent.com/wanglindl/TVlogo/main/img/hxjchd.png" group-title="地方",欢笑剧场
http://[2409:8087:1e03:21::2]:6060/cms001/ch00000090990000001193/index.m3u8
#EXTINF:-1 tvg-id="E22" tvg-name="第一财经" tvg-logo="https://mirror.ghproxy.com/https://raw.githubusercontent.com/wanglindl/TVlogo/main/img/dycj.png" group-title="地方",第一财经
http://[2409:8087:1e03:21::2]:6060/cms001/ch00000090990000001017/index.m3u8
#EXTINF:-1 tvg-id="E23" tvg-name="东方财经" tvg-logo="https://mirror.ghproxy.com/https://raw.githubusercontent.com/wanglindl/TVlogo/main/img/dfcj.png" group-title="地方",东方财经
http://[2409:8087:1e03:21::2]:6060/cms001/ch00000090990000001318/index.m3u8


#咪咕体育/46个频道
#EXTINF:-1 tvg-id="migu" tvg-name="咪咕直播" tvg-logo="https://mirror.ghproxy.com/https://raw.githubusercontent.com/Meroser/IPTV/main/TVlogo/MG.png" group-title="咪咕",咪咕直播4K-1
http://[2409:8087:1a01:df::4001]/PLTV/88888888/224/3221225655/index.m3u8
#EXTINF:-1 tvg-id="migu" tvg-name="咪咕直播" tvg-logo="https://mirror.ghproxy.com/https://raw.githubusercontent.com/Meroser/IPTV/main/TVlogo/MG.png" group-title="咪咕",咪咕直播4K-2
http://[2409:8087:1a01:df::4005]/PLTV/88888888/224/3221225651/index.m3u8
#EXTINF:-1 tvg-id="migu" tvg-name="咪咕直播" tvg-logo="https://mirror.ghproxy.com/https://raw.githubusercontent.com/Meroser/IPTV/main/TVlogo/MG.png" group-title="咪咕",咪咕直播-1
http://[2409:8087:1a01:df::4023]/PLTV/88888888/224/3221225611/index.m3u8
#EXTINF:-1 tvg-id="migu" tvg-name="咪咕直播" tvg-logo="https://mirror.ghproxy.com/https://raw.githubusercontent.com/Meroser/IPTV/main/TVlogo/MG.png" group-title="咪咕",咪咕直播-2
http://[2409:8087:1a01:df::4005]/PLTV/88888888/224/3221225613/index.m3u8
#EXTINF:-1 tvg-id="migu" tvg-name="咪咕直播" tvg-logo="https://mirror.ghproxy.com/https://raw.githubusercontent.com/Meroser/IPTV/main/TVlogo/MG.png" group-title="咪咕",咪咕直播-3
http://[2409:8087:1a01:df::4017]/PLTV/88888888/224/3221225619/index.m3u8
#EXTINF:-1 tvg-id="migu" tvg-name="咪咕直播" tvg-logo="https://mirror.ghproxy.com/https://raw.githubusercontent.com/Meroser/IPTV/main/TVlogo/MG.png" group-title="咪咕",咪咕直播-4
http://[2409:8087:1a01:df::4058]/PLTV/88888888/224/3221225620/index.m3u8
#EXTINF:-1 tvg-id="migu" tvg-name="咪咕直播" tvg-logo="https://mirror.ghproxy.com/https://raw.githubusercontent.com/Meroser/IPTV/main/TVlogo/MG.png" group-title="咪咕",咪咕直播-5
http://[2409:8087:1a01:df::4015]/PLTV/88888888/224/3221225639/index.m3u8
#EXTINF:-1 tvg-id="migu" tvg-name="咪咕直播" tvg-logo="https://mirror.ghproxy.com/https://raw.githubusercontent.com/Meroser/IPTV/main/TVlogo/MG.png" group-title="咪咕",咪咕直播-6
http://[2409:8087:1a01:df::4015]/PLTV/88888888/224/3221225641/index.m3u8
#EXTINF:-1 tvg-id="migu" tvg-name="咪咕直播" tvg-logo="https://mirror.ghproxy.com/https://raw.githubusercontent.com/Meroser/IPTV/main/TVlogo/MG.png" group-title="咪咕",咪咕直播-7
http://[2409:8087:1a01:df::4011]/PLTV/88888888/224/3221225643/index.m3u8
#EXTINF:-1 tvg-id="migu" tvg-name="咪咕直播" tvg-logo="https://mirror.ghproxy.com/https://raw.githubusercontent.com/Meroser/IPTV/main/TVlogo/MG.png" group-title="咪咕",咪咕直播-8
http://[2409:8087:1a01:df::4002]/PLTV/88888888/224/3221225645/index.m3u8
#EXTINF:-1 tvg-id="migu" tvg-name="咪咕直播" tvg-logo="https://mirror.ghproxy.com/https://raw.githubusercontent.com/Meroser/IPTV/main/TVlogo/MG.png" group-title="咪咕",咪咕直播-9
http://[2409:8087:1a01:df::4016]/PLTV/88888888/224/3221225647/index.m3u8
#EXTINF:-1 tvg-id="migu" tvg-name="咪咕直播" tvg-logo="https://mirror.ghproxy.com/https://raw.githubusercontent.com/Meroser/IPTV/main/TVlogo/MG.png" group-title="咪咕",咪咕直播-10
http://[2409:8087:1a01:df::4022]/PLTV/88888888/224/3221225648/index.m3u8
#EXTINF:-1 tvg-id="migu" tvg-name="咪咕直播" tvg-logo="https://mirror.ghproxy.com/https://raw.githubusercontent.com/Meroser/IPTV/main/TVlogo/MG.png" group-title="咪咕",咪咕直播-11
http://[2409:8087:1a01:df::402a]/ottrrs.hl.chinamobile.com/PLTV/88888888/224/3221226469/index.m3u8
#EXTINF:-1 tvg-id="migu" tvg-name="咪咕直播" tvg-logo="https://mirror.ghproxy.com/https://raw.githubusercontent.com/Meroser/IPTV/main/TVlogo/MG.png" group-title="咪咕",咪咕直播-12
http://[2409:8087:1a01:df::4046]/ottrrs.hl.chinamobile.com/PLTV/88888888/224/3221226472/index.m3u8
#EXTINF:-1 tvg-id="migu" tvg-name="咪咕直播" tvg-logo="https://mirror.ghproxy.com/https://raw.githubusercontent.com/Meroser/IPTV/main/TVlogo/MG.png" group-title="咪咕",咪咕直播-13
http://[2409:8087:1a01:df::4014]/PLTV/88888888/224/3221225652/index.m3u8
#EXTINF:-1 tvg-id="migu" tvg-name="咪咕直播" tvg-logo="https://mirror.ghproxy.com/https://raw.githubusercontent.com/Meroser/IPTV/main/TVlogo/MG.png" group-title="咪咕",咪咕直播-14
http://[2409:8087:1a01:df::4013]/PLTV/88888888/224/3221225653/index.m3u8
#EXTINF:-1 tvg-id="migu" tvg-name="咪咕直播" tvg-logo="https://mirror.ghproxy.com/https://raw.githubusercontent.com/Meroser/IPTV/main/TVlogo/MG.png" group-title="咪咕",咪咕直播-15
http://[2409:8087:1a01:df::4017]/PLTV/88888888/224/3221225654/index.m3u8
#EXTINF:-1 tvg-id="migu" tvg-name="咪咕直播" tvg-logo="https://mirror.ghproxy.com/https://raw.githubusercontent.com/Meroser/IPTV/main/TVlogo/MG.png" group-title="咪咕",咪咕直播-16
http://[2409:8087:1a01:df::4019]/PLTV/88888888/224/3221225658/index.m3u8
#EXTINF:-1 tvg-id="migu" tvg-name="咪咕直播" tvg-logo="https://mirror.ghproxy.com/https://raw.githubusercontent.com/Meroser/IPTV/main/TVlogo/MG.png" group-title="咪咕",咪咕直播-17
http://[2409:8087:1a01:df::4012]/PLTV/88888888/224/3221225660/index.m3u8
#EXTINF:-1 tvg-id="migu" tvg-name="咪咕直播" tvg-logo="https://mirror.ghproxy.com/https://raw.githubusercontent.com/Meroser/IPTV/main/TVlogo/MG.png" group-title="咪咕",咪咕直播-18
http://[2409:8087:1a01:df::4023]/PLTV/88888888/224/3221225662/index.m3u8
#EXTINF:-1 tvg-id="migu" tvg-name="咪咕直播" tvg-logo="https://mirror.ghproxy.com/https://raw.githubusercontent.com/Meroser/IPTV/main/TVlogo/MG.png" group-title="咪咕",咪咕直播-19
http://[2409:8087:1a01:df::4062]/PLTV/88888888/224/3221225733/index.m3u8
#EXTINF:-1 tvg-id="migu" tvg-name="咪咕直播" tvg-logo="https://mirror.ghproxy.com/https://raw.githubusercontent.com/Meroser/IPTV/main/TVlogo/MG.png" group-title="咪咕",咪咕直播-20
http://[2409:8087:1a01:df::4048]/PLTV/88888888/224/3221225735/index.m3u8
#EXTINF:-1 tvg-id="migu" tvg-name="咪咕直播" tvg-logo="https://mirror.ghproxy.com/https://raw.githubusercontent.com/Meroser/IPTV/main/TVlogo/MG.png" group-title="咪咕",咪咕直播-21
http://[2409:8087:1a01:df::4025]/PLTV/88888888/224/3221225737/index.m3u8
#EXTINF:-1 tvg-id="migu" tvg-name="咪咕直播" tvg-logo="https://mirror.ghproxy.com/https://raw.githubusercontent.com/Meroser/IPTV/main/TVlogo/MG.png" group-title="咪咕",咪咕直播-22
http://[2409:8087:1a01:df::4074]/PLTV/88888888/224/3221225739/index.m3u8
#EXTINF:-1 tvg-id="migu" tvg-name="咪咕直播" tvg-logo="https://mirror.ghproxy.com/https://raw.githubusercontent.com/Meroser/IPTV/main/TVlogo/MG.png" group-title="咪咕",咪咕直播-23
http://[2409:8087:1a01:df::4030]/PLTV/88888888/224/3221225754/index.m3u8
#EXTINF:-1 tvg-id="migu" tvg-name="咪咕直播" tvg-logo="https://mirror.ghproxy.com/https://raw.githubusercontent.com/Meroser/IPTV/main/TVlogo/MG.png" group-title="咪咕",咪咕直播-24
http://[2409:8087:1a01:df::4025]/PLTV/88888888/224/3221225756/index.m3u8
#EXTINF:-1 tvg-id="migu" tvg-name="咪咕直播" tvg-logo="https://mirror.ghproxy.com/https://raw.githubusercontent.com/Meroser/IPTV/main/TVlogo/MG.png" group-title="咪咕",咪咕直播-25
http://[2409:8087:1a01:df::4077]/PLTV/88888888/224/3221225758/index.m3u8
#EXTINF:-1 tvg-id="migu" tvg-name="咪咕直播" tvg-logo="https://mirror.ghproxy.com/https://raw.githubusercontent.com/Meroser/IPTV/main/TVlogo/MG.png" group-title="咪咕",咪咕直播-26
http://[2409:8087:1a01:df::4025]/PLTV/88888888/224/3221225760/index.m3u8
#EXTINF:-1 tvg-id="migu" tvg-name="咪咕直播" tvg-logo="https://mirror.ghproxy.com/https://raw.githubusercontent.com/Meroser/IPTV/main/TVlogo/MG.png" group-title="咪咕",咪咕直播-27
http://[2409:8087:1a01:df::4002]/PLTV/88888888/224/3221225895/index.m3u8
#EXTINF:-1 tvg-id="migu" tvg-name="咪咕直播" tvg-logo="https://mirror.ghproxy.com/https://raw.githubusercontent.com/Meroser/IPTV/main/TVlogo/MG.png" group-title="咪咕",咪咕直播-28
http://[2409:8087:1a01:df::4028]/PLTV/88888888/224/3221225897/index.m3u8
#EXTINF:-1 tvg-id="migu" tvg-name="咪咕直播" tvg-logo="https://mirror.ghproxy.com/https://raw.githubusercontent.com/Meroser/IPTV/main/TVlogo/MG.png" group-title="咪咕",咪咕直播-29
http://[2409:8087:1a01:df::4061]/PLTV/88888888/224/3221225899/index.m3u8
#EXTINF:-1 tvg-id="migu" tvg-name="咪咕直播" tvg-logo="https://mirror.ghproxy.com/https://raw.githubusercontent.com/Meroser/IPTV/main/TVlogo/MG.png" group-title="咪咕",咪咕直播-30
http://[2409:8087:1a01:df::4009]/PLTV/88888888/224/3221225901/index.m3u8
#EXTINF:-1 tvg-id="migu" tvg-name="咪咕直播" tvg-logo="https://mirror.ghproxy.com/https://raw.githubusercontent.com/Meroser/IPTV/main/TVlogo/MG.png" group-title="咪咕",咪咕直播-31
http://[2409:8087:1a01:df::4023]/PLTV/88888888/224/3221225903/index.m3u8
#EXTINF:-1 tvg-id="migu" tvg-name="咪咕直播" tvg-logo="https://mirror.ghproxy.com/https://raw.githubusercontent.com/Meroser/IPTV/main/TVlogo/MG.png" group-title="咪咕",咪咕直播-32
http://[2409:8087:1a01:df::4079]/PLTV/88888888/224/3221225904/index.m3u8
#EXTINF:-1 tvg-id="migu" tvg-name="咪咕直播" tvg-logo="https://mirror.ghproxy.com/https://raw.githubusercontent.com/Meroser/IPTV/main/TVlogo/MG.png" group-title="咪咕",咪咕直播-33
http://[2409:8087:1a01:df::4051]/PLTV/88888888/224/3221225905/index.m3u8
#EXTINF:-1 tvg-id="migu" tvg-name="咪咕直播" tvg-logo="https://mirror.ghproxy.com/https://raw.githubusercontent.com/Meroser/IPTV/main/TVlogo/MG.png" group-title="咪咕",咪咕直播-34
http://[2409:8087:1a01:df::4077]/PLTV/88888888/224/3221225906/index.m3u8
#EXTINF:-1 tvg-id="migu" tvg-name="咪咕直播" tvg-logo="https://mirror.ghproxy.com/https://raw.githubusercontent.com/Meroser/IPTV/main/TVlogo/MG.png" group-title="咪咕",咪咕直播-35
http://[2409:8087:1a01:df::4055]/PLTV/88888888/224/3221225910/index.m3u8
#EXTINF:-1 tvg-id="migu" tvg-name="咪咕直播" tvg-logo="https://mirror.ghproxy.com/https://raw.githubusercontent.com/Meroser/IPTV/main/TVlogo/MG.png" group-title="咪咕",咪咕直播-36
http://[2409:8087:1a01:df::4076]/PLTV/88888888/224/3221225912/index.m3u8
#EXTINF:-1 tvg-id="migu" tvg-name="咪咕直播" tvg-logo="https://mirror.ghproxy.com/https://raw.githubusercontent.com/Meroser/IPTV/main/TVlogo/MG.png" group-title="咪咕",咪咕直播-37
http://[2409:8087:1a01:df::4027]/PLTV/88888888/224/3221225914/index.m3u8
#EXTINF:-1 tvg-id="migu" tvg-name="咪咕直播" tvg-logo="https://mirror.ghproxy.com/https://raw.githubusercontent.com/Meroser/IPTV/main/TVlogo/MG.png" group-title="咪咕",咪咕直播-38
http://[2409:8087:1a01:df::4076]/PLTV/88888888/224/3221226027/index.m3u8
#EXTINF:-1 tvg-id="migu" tvg-name="咪咕直播" tvg-logo="https://mirror.ghproxy.com/https://raw.githubusercontent.com/Meroser/IPTV/main/TVlogo/MG.png" group-title="咪咕",咪咕直播-39
http://[2409:8087:1a01:df::4068]/PLTV/88888888/224/3221226031/index.m3u8
#EXTINF:-1 tvg-id="migu" tvg-name="咪咕直播" tvg-logo="https://mirror.ghproxy.com/https://raw.githubusercontent.com/Meroser/IPTV/main/TVlogo/MG.png" group-title="咪咕",咪咕直播-40
http://[2409:8087:1a01:df::4062]/PLTV/88888888/224/3221226046/index.m3u8
#EXTINF:-1 tvg-id="migu" tvg-name="咪咕直播" tvg-logo="https://mirror.ghproxy.com/https://raw.githubusercontent.com/Meroser/IPTV/main/TVlogo/MG.png" group-title="咪咕",咪咕直播-41
http://[2409:8087:1a01:df::4041]/PLTV/88888888/224/3221226053/index.m3u8
#EXTINF:-1 tvg-id="migu" tvg-name="咪咕直播" tvg-logo="https://mirror.ghproxy.com/https://raw.githubusercontent.com/Meroser/IPTV/main/TVlogo/MG.png" group-title="咪咕",咪咕直播-42
http://[2409:8087:1a01:df::404d]/ottrrs.hl.chinamobile.com/PLTV/88888888/224/3221226124/index.m3u8
#EXTINF:-1 tvg-id="migu" tvg-name="咪咕直播" tvg-logo="https://mirror.ghproxy.com/https://raw.githubusercontent.com/Meroser/IPTV/main/TVlogo/MG.png" group-title="咪咕",咪咕直播-43
http://[2409:8087:1a01:df::403b]/ottrrs.hl.chinamobile.com/PLTV/88888888/224/3221226147/index.m3u8
#EXTINF:-1 tvg-id="migu" tvg-name="咪咕直播" tvg-logo="https://mirror.ghproxy.com/https://raw.githubusercontent.com/Meroser/IPTV/main/TVlogo/MG.png" group-title="咪咕",咪咕直播-44
http://[2409:8087:1a01:df::4033]/ottrrs.hl.chinamobile.com/PLTV/88888888/224/3221226398/index.m3u8
